%YAML 1.1
%TAG !u! tag:unity3d.com,2011:
--- !u!29 &1
OcclusionCullingSettings:
  m_ObjectHideFlags: 0
  serializedVersion: 2
  m_OcclusionBakeSettings:
    smallestOccluder: 5
    smallestHole: 0.25
    backfaceThreshold: 100
  m_SceneGUID: 00000000000000000000000000000000
  m_OcclusionCullingData: {fileID: 0}
--- !u!104 &2
RenderSettings:
  m_ObjectHideFlags: 0
  serializedVersion: 9
  m_Fog: 0
  m_FogColor: {r: 0.5, g: 0.5, b: 0.5, a: 1}
  m_FogMode: 3
  m_FogDensity: 0.01
  m_LinearFogStart: 0
  m_LinearFogEnd: 300
  m_AmbientSkyColor: {r: 0.56007475, g: 0.5683517, b: 0.5849056, a: 1}
  m_AmbientEquatorColor: {r: 0.2804824, g: 0.29898542, b: 0.31132078, a: 1}
  m_AmbientGroundColor: {r: 0.3679245, g: 0.3679245, b: 0.3679245, a: 1}
  m_AmbientIntensity: 1
  m_AmbientMode: 1
  m_SubtractiveShadowColor: {r: 0.42, g: 0.478, b: 0.627, a: 1}
  m_SkyboxMaterial: {fileID: 0}
  m_HaloStrength: 0.5
  m_FlareStrength: 1
  m_FlareFadeSpeed: 3
  m_HaloTexture: {fileID: 0}
  m_SpotCookie: {fileID: 10001, guid: 0000000000000000e000000000000000, type: 0}
  m_DefaultReflectionMode: 0
  m_DefaultReflectionResolution: 128
  m_ReflectionBounces: 1
  m_ReflectionIntensity: 1
  m_CustomReflection: {fileID: 0}
  m_Sun: {fileID: 0}
  m_IndirectSpecularColor: {r: 0, g: 0, b: 0, a: 1}
  m_UseRadianceAmbientProbe: 0
--- !u!157 &3
LightmapSettings:
  m_ObjectHideFlags: 0
  serializedVersion: 12
  m_GIWorkflowMode: 1
  m_GISettings:
    serializedVersion: 2
    m_BounceScale: 1
    m_IndirectOutputScale: 1
    m_AlbedoBoost: 1
    m_EnvironmentLightingMode: 0
    m_EnableBakedLightmaps: 1
    m_EnableRealtimeLightmaps: 0
  m_LightmapEditorSettings:
    serializedVersion: 12
    m_Resolution: 2
    m_BakeResolution: 40
    m_AtlasSize: 1024
    m_AO: 0
    m_AOMaxDistance: 1
    m_CompAOExponent: 1
    m_CompAOExponentDirect: 0
    m_ExtractAmbientOcclusion: 0
    m_Padding: 2
    m_LightmapParameters: {fileID: 0}
    m_LightmapsBakeMode: 1
    m_TextureCompression: 1
    m_FinalGather: 0
    m_FinalGatherFiltering: 1
    m_FinalGatherRayCount: 256
    m_ReflectionCompression: 2
    m_MixedBakeMode: 2
    m_BakeBackend: 1
    m_PVRSampling: 1
    m_PVRDirectSampleCount: 32
    m_PVRSampleCount: 512
    m_PVRBounces: 2
    m_PVREnvironmentSampleCount: 256
    m_PVREnvironmentReferencePointCount: 2048
    m_PVRFilteringMode: 1
    m_PVRDenoiserTypeDirect: 1
    m_PVRDenoiserTypeIndirect: 1
    m_PVRDenoiserTypeAO: 1
    m_PVRFilterTypeDirect: 0
    m_PVRFilterTypeIndirect: 0
    m_PVRFilterTypeAO: 0
    m_PVREnvironmentMIS: 1
    m_PVRCulling: 1
    m_PVRFilteringGaussRadiusDirect: 1
    m_PVRFilteringGaussRadiusIndirect: 5
    m_PVRFilteringGaussRadiusAO: 2
    m_PVRFilteringAtrousPositionSigmaDirect: 0.5
    m_PVRFilteringAtrousPositionSigmaIndirect: 2
    m_PVRFilteringAtrousPositionSigmaAO: 1
    m_ExportTrainingData: 0
    m_TrainingDataDestination: TrainingData
    m_LightProbeSampleCountMultiplier: 4
  m_LightingDataAsset: {fileID: 112000000, guid: 6227f275ea8973e4eae32f63a9c38436, type: 2}
  m_LightingSettings: {fileID: 0}
--- !u!196 &4
NavMeshSettings:
  serializedVersion: 2
  m_ObjectHideFlags: 0
  m_BuildSettings:
    serializedVersion: 3
    agentTypeID: 0
    agentRadius: 0.5
    agentHeight: 2
    agentSlope: 45
    agentClimb: 0.4
    ledgeDropHeight: 0
    maxJumpAcrossDistance: 0
    minRegionArea: 2
    manualCellSize: 0
    cellSize: 0.16666667
    manualTileSize: 0
    tileSize: 256
    buildHeightMesh: 0
    maxJobWorkers: 0
    preserveTilesOutsideBounds: 0
    debug:
      m_Flags: 0
  m_NavMeshData: {fileID: 0}
--- !u!1 &2097769180
GameObject:
  m_ObjectHideFlags: 0
  m_CorrespondingSourceObject: {fileID: 0}
  m_PrefabInstance: {fileID: 0}
  m_PrefabAsset: {fileID: 0}
  serializedVersion: 6
  m_Component:
  - component: {fileID: 2097769182}
  - component: {fileID: 2097769181}
  m_Layer: 0
  m_Name: Sun
  m_TagString: Untagged
  m_Icon: {fileID: 0}
  m_NavMeshLayer: 0
  m_StaticEditorFlags: 0
  m_IsActive: 1
--- !u!108 &2097769181
Light:
  m_ObjectHideFlags: 0
  m_CorrespondingSourceObject: {fileID: 0}
  m_PrefabInstance: {fileID: 0}
  m_PrefabAsset: {fileID: 0}
  m_GameObject: {fileID: 2097769180}
  m_Enabled: 1
  serializedVersion: 10
  m_Type: 1
  m_Shape: 0
  m_Color: {r: 0.8962264, g: 0.8962264, b: 0.8962264, a: 1}
  m_Intensity: 1
  m_Range: 10
  m_SpotAngle: 30
  m_InnerSpotAngle: 21.80208
  m_CookieSize: 10
  m_Shadows:
    m_Type: 2
    m_Resolution: 3
    m_CustomResolution: -1
    m_Strength: 1
    m_Bias: 0.02
    m_NormalBias: 0
    m_NearPlane: 0.2
    m_CullingMatrixOverride:
      e00: 1
      e01: 0
      e02: 0
      e03: 0
      e10: 0
      e11: 1
      e12: 0
      e13: 0
      e20: 0
      e21: 0
      e22: 1
      e23: 0
      e30: 0
      e31: 0
      e32: 0
      e33: 1
    m_UseCullingMatrixOverride: 0
  m_Cookie: {fileID: 0}
  m_DrawHalo: 0
  m_Flare: {fileID: 0}
  m_RenderMode: 0
  m_CullingMask:
    serializedVersion: 2
    m_Bits: 4294967295
  m_RenderingLayerMask: 1
  m_Lightmapping: 1
  m_LightShadowCasterMode: 0
  m_AreaSize: {x: 1, y: 1}
  m_BounceIntensity: 1
  m_ColorTemperature: 6570
  m_UseColorTemperature: 0
  m_BoundingSphereOverride: {x: 4.08e-43, y: 1.16e-43, z: 0, w: 497.04468}
  m_UseBoundingSphereOverride: 0
  m_UseViewFrustumForShadowCasterCull: 1
  m_ShadowRadius: 0
  m_ShadowAngle: 0
--- !u!4 &2097769182
Transform:
  m_ObjectHideFlags: 0
  m_CorrespondingSourceObject: {fileID: 0}
  m_PrefabInstance: {fileID: 0}
  m_PrefabAsset: {fileID: 0}
  m_GameObject: {fileID: 2097769180}
  m_LocalRotation: {x: 0.27731803, y: -0.47752887, z: 0.48440266, w: 0.6785389}
  m_LocalPosition: {x: 2.77, y: 8.22, z: -11.15}
  m_LocalScale: {x: 1, y: 1, z: 1}
  m_ConstrainProportionsScale: 0
  m_Children: []
  m_Father: {fileID: 0}
  m_RootOrder: 0
  m_LocalEulerAnglesHint: {x: 122.968, y: -224.2, z: -133.837}
--- !u!1001 &2137085635
PrefabInstance:
  m_ObjectHideFlags: 0
  serializedVersion: 2
  m_Modification:
    serializedVersion: 3
    m_TransformParent: {fileID: 0}
    m_Modifications:
    - target: {fileID: 606619929, guid: 5e50eba45ef63694ab6dad66efcbb007, type: 3}
      propertyPath: m_AnchoredPosition.y
      value: 1.944
      objectReference: {fileID: 0}
    - target: {fileID: 1039263618, guid: 5e50eba45ef63694ab6dad66efcbb007, type: 3}
      propertyPath: m_AnchorMax.y
      value: 0
      objectReference: {fileID: 0}
    - target: {fileID: 1505454190, guid: 5e50eba45ef63694ab6dad66efcbb007, type: 3}
      propertyPath: m_AnchorMax.y
      value: 0
      objectReference: {fileID: 0}
    - target: {fileID: 2054531804, guid: 5e50eba45ef63694ab6dad66efcbb007, type: 3}
      propertyPath: m_LocalPosition.x
      value: 0.34059474
      objectReference: {fileID: 0}
    - target: {fileID: 2054531804, guid: 5e50eba45ef63694ab6dad66efcbb007, type: 3}
      propertyPath: m_LocalPosition.z
      value: 5.6595407
      objectReference: {fileID: 0}
    - target: {fileID: 2054531804, guid: 5e50eba45ef63694ab6dad66efcbb007, type: 3}
      propertyPath: m_LocalRotation.w
      value: 0.98314154
      objectReference: {fileID: 0}
    - target: {fileID: 2054531804, guid: 5e50eba45ef63694ab6dad66efcbb007, type: 3}
      propertyPath: m_LocalRotation.x
      value: 0.17395608
      objectReference: {fileID: 0}
    - target: {fileID: 2054531804, guid: 5e50eba45ef63694ab6dad66efcbb007, type: 3}
      propertyPath: m_LocalRotation.y
      value: 0.055460185
      objectReference: {fileID: 0}
    - target: {fileID: 2054531804, guid: 5e50eba45ef63694ab6dad66efcbb007, type: 3}
      propertyPath: m_LocalRotation.z
      value: -0.0098130815
      objectReference: {fileID: 0}
    - target: {fileID: 2054531804, guid: 5e50eba45ef63694ab6dad66efcbb007, type: 3}
      propertyPath: m_LocalEulerAnglesHint.y
      value: 6.457
      objectReference: {fileID: 0}
    - target: {fileID: 978657813468059758, guid: 5e50eba45ef63694ab6dad66efcbb007, type: 3}
      propertyPath: m_LocalPosition.x
      value: -1.052
      objectReference: {fileID: 0}
    - target: {fileID: 978657813468059758, guid: 5e50eba45ef63694ab6dad66efcbb007, type: 3}
      propertyPath: m_LocalPosition.z
      value: 0.182
      objectReference: {fileID: 0}
    - target: {fileID: 978657813468059758, guid: 5e50eba45ef63694ab6dad66efcbb007, type: 3}
      propertyPath: m_LocalRotation.w
      value: -0.9932172
      objectReference: {fileID: 0}
    - target: {fileID: 978657813468059758, guid: 5e50eba45ef63694ab6dad66efcbb007, type: 3}
      propertyPath: m_LocalRotation.y
      value: -0.116274
      objectReference: {fileID: 0}
    - target: {fileID: 978657813468059758, guid: 5e50eba45ef63694ab6dad66efcbb007, type: 3}
      propertyPath: m_LocalEulerAnglesHint.y
      value: 13.354
      objectReference: {fileID: 0}
    - target: {fileID: 4386901543737213275, guid: 5e50eba45ef63694ab6dad66efcbb007, type: 3}
      propertyPath: m_RootOrder
      value: 2
      objectReference: {fileID: 0}
    - target: {fileID: 4386901543737213275, guid: 5e50eba45ef63694ab6dad66efcbb007, type: 3}
      propertyPath: m_LocalPosition.x
      value: 0
      objectReference: {fileID: 0}
    - target: {fileID: 4386901543737213275, guid: 5e50eba45ef63694ab6dad66efcbb007, type: 3}
      propertyPath: m_LocalPosition.y
      value: 0
      objectReference: {fileID: 0}
    - target: {fileID: 4386901543737213275, guid: 5e50eba45ef63694ab6dad66efcbb007, type: 3}
      propertyPath: m_LocalPosition.z
      value: -9
      objectReference: {fileID: 0}
    - target: {fileID: 4386901543737213275, guid: 5e50eba45ef63694ab6dad66efcbb007, type: 3}
      propertyPath: m_LocalRotation.w
      value: 1
      objectReference: {fileID: 0}
    - target: {fileID: 4386901543737213275, guid: 5e50eba45ef63694ab6dad66efcbb007, type: 3}
      propertyPath: m_LocalRotation.x
      value: 0
      objectReference: {fileID: 0}
    - target: {fileID: 4386901543737213275, guid: 5e50eba45ef63694ab6dad66efcbb007, type: 3}
      propertyPath: m_LocalRotation.y
      value: 0
      objectReference: {fileID: 0}
    - target: {fileID: 4386901543737213275, guid: 5e50eba45ef63694ab6dad66efcbb007, type: 3}
      propertyPath: m_LocalRotation.z
      value: 0
      objectReference: {fileID: 0}
    - target: {fileID: 4386901543737213275, guid: 5e50eba45ef63694ab6dad66efcbb007, type: 3}
      propertyPath: m_LocalEulerAnglesHint.x
      value: 0
      objectReference: {fileID: 0}
    - target: {fileID: 4386901543737213275, guid: 5e50eba45ef63694ab6dad66efcbb007, type: 3}
      propertyPath: m_LocalEulerAnglesHint.y
      value: 0
      objectReference: {fileID: 0}
    - target: {fileID: 4386901543737213275, guid: 5e50eba45ef63694ab6dad66efcbb007, type: 3}
      propertyPath: m_LocalEulerAnglesHint.z
      value: 0
      objectReference: {fileID: 0}
    - target: {fileID: 4386901543737213276, guid: 5e50eba45ef63694ab6dad66efcbb007, type: 3}
      propertyPath: m_Name
      value: Zone
      objectReference: {fileID: 0}
    m_RemovedComponents: []
    m_RemovedGameObjects: []
    m_AddedGameObjects: []
    m_AddedComponents:
    - targetCorrespondingSourceObject: {fileID: 7531023387266133322, guid: 5e50eba45ef63694ab6dad66efcbb007, type: 3}
      insertIndex: -1
      addedObject: {fileID: 0}
    - targetCorrespondingSourceObject: {fileID: 2820588587715560720, guid: 5e50eba45ef63694ab6dad66efcbb007, type: 3}
      insertIndex: -1
      addedObject: {fileID: 0}
    - targetCorrespondingSourceObject: {fileID: 1844005919, guid: 5e50eba45ef63694ab6dad66efcbb007, type: 3}
      insertIndex: -1
      addedObject: {fileID: 0}
    - targetCorrespondingSourceObject: {fileID: 833431677, guid: 5e50eba45ef63694ab6dad66efcbb007, type: 3}
      insertIndex: -1
      addedObject: {fileID: 0}
    - targetCorrespondingSourceObject: {fileID: 4386901543565365348, guid: 5e50eba45ef63694ab6dad66efcbb007, type: 3}
      insertIndex: -1
      addedObject: {fileID: 0}
    - targetCorrespondingSourceObject: {fileID: 4386901544364532516, guid: 5e50eba45ef63694ab6dad66efcbb007, type: 3}
      insertIndex: -1
      addedObject: {fileID: 0}
    - targetCorrespondingSourceObject: {fileID: 4386901543687871597, guid: 5e50eba45ef63694ab6dad66efcbb007, type: 3}
      insertIndex: -1
      addedObject: {fileID: 0}
    - targetCorrespondingSourceObject: {fileID: 4386901543840574757, guid: 5e50eba45ef63694ab6dad66efcbb007, type: 3}
      insertIndex: -1
      addedObject: {fileID: 0}
    - targetCorrespondingSourceObject: {fileID: 620805501310669234, guid: 5e50eba45ef63694ab6dad66efcbb007, type: 3}
      insertIndex: -1
      addedObject: {fileID: 0}
    - targetCorrespondingSourceObject: {fileID: 4014361144354874352, guid: 5e50eba45ef63694ab6dad66efcbb007, type: 3}
      insertIndex: -1
      addedObject: {fileID: 0}
    - targetCorrespondingSourceObject: {fileID: 7749575566738342247, guid: 5e50eba45ef63694ab6dad66efcbb007, type: 3}
      insertIndex: -1
      addedObject: {fileID: 0}
    - targetCorrespondingSourceObject: {fileID: 5376596066449436258, guid: 5e50eba45ef63694ab6dad66efcbb007, type: 3}
      insertIndex: -1
      addedObject: {fileID: 0}
    - targetCorrespondingSourceObject: {fileID: 6124251937324187312, guid: 5e50eba45ef63694ab6dad66efcbb007, type: 3}
      insertIndex: -1
      addedObject: {fileID: 0}
    - targetCorrespondingSourceObject: {fileID: 192626482708644626, guid: 5e50eba45ef63694ab6dad66efcbb007, type: 3}
      insertIndex: -1
      addedObject: {fileID: 0}
    - targetCorrespondingSourceObject: {fileID: 65414572, guid: 5e50eba45ef63694ab6dad66efcbb007, type: 3}
      insertIndex: -1
      addedObject: {fileID: 0}
    - targetCorrespondingSourceObject: {fileID: 5275423097335256121, guid: 5e50eba45ef63694ab6dad66efcbb007, type: 3}
      insertIndex: -1
      addedObject: {fileID: 0}
    - targetCorrespondingSourceObject: {fileID: 7367101976624086537, guid: 5e50eba45ef63694ab6dad66efcbb007, type: 3}
      insertIndex: -1
      addedObject: {fileID: 0}
    - targetCorrespondingSourceObject: {fileID: 7184958732739934431, guid: 5e50eba45ef63694ab6dad66efcbb007, type: 3}
      insertIndex: -1
      addedObject: {fileID: 0}
    - targetCorrespondingSourceObject: {fileID: 5011675362384627813, guid: 5e50eba45ef63694ab6dad66efcbb007, type: 3}
      insertIndex: -1
      addedObject: {fileID: 0}
    - targetCorrespondingSourceObject: {fileID: 3955459321072773917, guid: 5e50eba45ef63694ab6dad66efcbb007, type: 3}
      insertIndex: -1
      addedObject: {fileID: 0}
    - targetCorrespondingSourceObject: {fileID: 8883590486772597091, guid: 5e50eba45ef63694ab6dad66efcbb007, type: 3}
      insertIndex: -1
      addedObject: {fileID: 0}
    - targetCorrespondingSourceObject: {fileID: 486757731510613039, guid: 5e50eba45ef63694ab6dad66efcbb007, type: 3}
      insertIndex: -1
      addedObject: {fileID: 0}
    - targetCorrespondingSourceObject: {fileID: 3568514849054988622, guid: 5e50eba45ef63694ab6dad66efcbb007, type: 3}
      insertIndex: -1
      addedObject: {fileID: 0}
    - targetCorrespondingSourceObject: {fileID: 6278282686156128001, guid: 5e50eba45ef63694ab6dad66efcbb007, type: 3}
      insertIndex: -1
      addedObject: {fileID: 0}
    - targetCorrespondingSourceObject: {fileID: 2575805314369170724, guid: 5e50eba45ef63694ab6dad66efcbb007, type: 3}
      insertIndex: -1
      addedObject: {fileID: 0}
    - targetCorrespondingSourceObject: {fileID: 2758055940110838855, guid: 5e50eba45ef63694ab6dad66efcbb007, type: 3}
      insertIndex: -1
      addedObject: {fileID: 0}
    - targetCorrespondingSourceObject: {fileID: 6720952581499389310, guid: 5e50eba45ef63694ab6dad66efcbb007, type: 3}
      insertIndex: -1
      addedObject: {fileID: 0}
    - targetCorrespondingSourceObject: {fileID: 360761215, guid: 5e50eba45ef63694ab6dad66efcbb007, type: 3}
      insertIndex: -1
      addedObject: {fileID: 0}
    - targetCorrespondingSourceObject: {fileID: 6401584905537735208, guid: 5e50eba45ef63694ab6dad66efcbb007, type: 3}
      insertIndex: -1
      addedObject: {fileID: 0}
    - targetCorrespondingSourceObject: {fileID: 2104026825, guid: 5e50eba45ef63694ab6dad66efcbb007, type: 3}
      insertIndex: -1
      addedObject: {fileID: 0}
    - targetCorrespondingSourceObject: {fileID: 2862376867995728409, guid: 5e50eba45ef63694ab6dad66efcbb007, type: 3}
      insertIndex: -1
      addedObject: {fileID: 0}
    - targetCorrespondingSourceObject: {fileID: 2116410087655434116, guid: 5e50eba45ef63694ab6dad66efcbb007, type: 3}
      insertIndex: -1
      addedObject: {fileID: 0}
    - targetCorrespondingSourceObject: {fileID: 7445918595263535531, guid: 5e50eba45ef63694ab6dad66efcbb007, type: 3}
      insertIndex: -1
      addedObject: {fileID: 0}
    - targetCorrespondingSourceObject: {fileID: 379905164, guid: 5e50eba45ef63694ab6dad66efcbb007, type: 3}
      insertIndex: -1
      addedObject: {fileID: 0}
    - targetCorrespondingSourceObject: {fileID: 7531023388382825481, guid: 5e50eba45ef63694ab6dad66efcbb007, type: 3}
      insertIndex: -1
      addedObject: {fileID: 0}
    - targetCorrespondingSourceObject: {fileID: 2820588586683933779, guid: 5e50eba45ef63694ab6dad66efcbb007, type: 3}
      insertIndex: -1
      addedObject: {fileID: 0}
    - targetCorrespondingSourceObject: {fileID: 4403860743657972347, guid: 5e50eba45ef63694ab6dad66efcbb007, type: 3}
      insertIndex: -1
      addedObject: {fileID: 0}
    - targetCorrespondingSourceObject: {fileID: 4685086541925951681, guid: 5e50eba45ef63694ab6dad66efcbb007, type: 3}
      insertIndex: -1
      addedObject: {fileID: 0}
    - targetCorrespondingSourceObject: {fileID: 769848162568033973, guid: 5e50eba45ef63694ab6dad66efcbb007, type: 3}
      insertIndex: -1
      addedObject: {fileID: 0}
    - targetCorrespondingSourceObject: {fileID: 5576051094750774780, guid: 5e50eba45ef63694ab6dad66efcbb007, type: 3}
      insertIndex: -1
      addedObject: {fileID: 0}
    - targetCorrespondingSourceObject: {fileID: 1631886245645278593, guid: 5e50eba45ef63694ab6dad66efcbb007, type: 3}
      insertIndex: -1
      addedObject: {fileID: 0}
    - targetCorrespondingSourceObject: {fileID: 7531023388682785573, guid: 5e50eba45ef63694ab6dad66efcbb007, type: 3}
      insertIndex: -1
      addedObject: {fileID: 0}
    - targetCorrespondingSourceObject: {fileID: 2820588586317790079, guid: 5e50eba45ef63694ab6dad66efcbb007, type: 3}
      insertIndex: -1
      addedObject: {fileID: 0}
    - targetCorrespondingSourceObject: {fileID: 2188144732556105462, guid: 5e50eba45ef63694ab6dad66efcbb007, type: 3}
      insertIndex: -1
      addedObject: {fileID: 0}
    - targetCorrespondingSourceObject: {fileID: 7150889007339460883, guid: 5e50eba45ef63694ab6dad66efcbb007, type: 3}
      insertIndex: -1
      addedObject: {fileID: 0}
    - targetCorrespondingSourceObject: {fileID: 7285550274347332700, guid: 5e50eba45ef63694ab6dad66efcbb007, type: 3}
      insertIndex: -1
      addedObject: {fileID: 0}
    - targetCorrespondingSourceObject: {fileID: 5422668129626277355, guid: 5e50eba45ef63694ab6dad66efcbb007, type: 3}
      insertIndex: -1
      addedObject: {fileID: 0}
    - targetCorrespondingSourceObject: {fileID: 8257962798508678855, guid: 5e50eba45ef63694ab6dad66efcbb007, type: 3}
      insertIndex: -1
      addedObject: {fileID: 0}
    - targetCorrespondingSourceObject: {fileID: 386265973931623597, guid: 5e50eba45ef63694ab6dad66efcbb007, type: 3}
      insertIndex: -1
      addedObject: {fileID: 0}
    - targetCorrespondingSourceObject: {fileID: 3989124139451121306, guid: 5e50eba45ef63694ab6dad66efcbb007, type: 3}
      insertIndex: -1
      addedObject: {fileID: 0}
    - targetCorrespondingSourceObject: {fileID: 788111523227098907, guid: 5e50eba45ef63694ab6dad66efcbb007, type: 3}
      insertIndex: -1
      addedObject: {fileID: 0}
    - targetCorrespondingSourceObject: {fileID: 835599057994427985, guid: 5e50eba45ef63694ab6dad66efcbb007, type: 3}
      insertIndex: -1
      addedObject: {fileID: 0}
    - targetCorrespondingSourceObject: {fileID: 3854765129686965014, guid: 5e50eba45ef63694ab6dad66efcbb007, type: 3}
      insertIndex: -1
      addedObject: {fileID: 0}
    - targetCorrespondingSourceObject: {fileID: 1736968550444352558, guid: 5e50eba45ef63694ab6dad66efcbb007, type: 3}
      insertIndex: -1
      addedObject: {fileID: 0}
    - targetCorrespondingSourceObject: {fileID: 7200802445144978536, guid: 5e50eba45ef63694ab6dad66efcbb007, type: 3}
      insertIndex: -1
      addedObject: {fileID: 0}
    - targetCorrespondingSourceObject: {fileID: 2362940715826906417, guid: 5e50eba45ef63694ab6dad66efcbb007, type: 3}
      insertIndex: -1
      addedObject: {fileID: 0}
    - targetCorrespondingSourceObject: {fileID: 7531023386933323258, guid: 5e50eba45ef63694ab6dad66efcbb007, type: 3}
      insertIndex: -1
      addedObject: {fileID: 0}
    - targetCorrespondingSourceObject: {fileID: 2820588588049583520, guid: 5e50eba45ef63694ab6dad66efcbb007, type: 3}
      insertIndex: -1
      addedObject: {fileID: 0}
    - targetCorrespondingSourceObject: {fileID: 7071747941353181039, guid: 5e50eba45ef63694ab6dad66efcbb007, type: 3}
      insertIndex: -1
      addedObject: {fileID: 0}
    - targetCorrespondingSourceObject: {fileID: 7414124939270202690, guid: 5e50eba45ef63694ab6dad66efcbb007, type: 3}
      insertIndex: -1
      addedObject: {fileID: 0}
    - targetCorrespondingSourceObject: {fileID: 7531023388855312100, guid: 5e50eba45ef63694ab6dad66efcbb007, type: 3}
      insertIndex: -1
      addedObject: {fileID: 0}
    - targetCorrespondingSourceObject: {fileID: 2820588586209359550, guid: 5e50eba45ef63694ab6dad66efcbb007, type: 3}
      insertIndex: -1
      addedObject: {fileID: 0}
    - targetCorrespondingSourceObject: {fileID: 7531023387364738104, guid: 5e50eba45ef63694ab6dad66efcbb007, type: 3}
      insertIndex: -1
      addedObject: {fileID: 0}
    - targetCorrespondingSourceObject: {fileID: 1462635720915367683, guid: 5e50eba45ef63694ab6dad66efcbb007, type: 3}
      insertIndex: -1
      addedObject: {fileID: 0}
    - targetCorrespondingSourceObject: {fileID: 488603305252240256, guid: 5e50eba45ef63694ab6dad66efcbb007, type: 3}
      insertIndex: -1
      addedObject: {fileID: 0}
    - targetCorrespondingSourceObject: {fileID: 5005706395060330128, guid: 5e50eba45ef63694ab6dad66efcbb007, type: 3}
      insertIndex: -1
      addedObject: {fileID: 0}
    - targetCorrespondingSourceObject: {fileID: 703846272642729129, guid: 5e50eba45ef63694ab6dad66efcbb007, type: 3}
      insertIndex: -1
      addedObject: {fileID: 0}
    - targetCorrespondingSourceObject: {fileID: 4339614754276851050, guid: 5e50eba45ef63694ab6dad66efcbb007, type: 3}
      insertIndex: -1
      addedObject: {fileID: 0}
    - targetCorrespondingSourceObject: {fileID: 2328648023248615547, guid: 5e50eba45ef63694ab6dad66efcbb007, type: 3}
      insertIndex: -1
      addedObject: {fileID: 0}
    - targetCorrespondingSourceObject: {fileID: 2981781559348333368, guid: 5e50eba45ef63694ab6dad66efcbb007, type: 3}
      insertIndex: -1
      addedObject: {fileID: 0}
    - targetCorrespondingSourceObject: {fileID: 7405682749708837730, guid: 5e50eba45ef63694ab6dad66efcbb007, type: 3}
      insertIndex: -1
      addedObject: {fileID: 0}
    - targetCorrespondingSourceObject: {fileID: 7531023386725518659, guid: 5e50eba45ef63694ab6dad66efcbb007, type: 3}
      insertIndex: -1
      addedObject: {fileID: 0}
    - targetCorrespondingSourceObject: {fileID: 2820588588273083673, guid: 5e50eba45ef63694ab6dad66efcbb007, type: 3}
      insertIndex: -1
      addedObject: {fileID: 0}
    - targetCorrespondingSourceObject: {fileID: 1378244569481539631, guid: 5e50eba45ef63694ab6dad66efcbb007, type: 3}
      insertIndex: -1
      addedObject: {fileID: 0}
    - targetCorrespondingSourceObject: {fileID: 8903042774253769059, guid: 5e50eba45ef63694ab6dad66efcbb007, type: 3}
      insertIndex: -1
      addedObject: {fileID: 0}
    - targetCorrespondingSourceObject: {fileID: 2116137080230545012, guid: 5e50eba45ef63694ab6dad66efcbb007, type: 3}
      insertIndex: -1
      addedObject: {fileID: 0}
    - targetCorrespondingSourceObject: {fileID: 3985488140332931746, guid: 5e50eba45ef63694ab6dad66efcbb007, type: 3}
      insertIndex: -1
      addedObject: {fileID: 0}
    - targetCorrespondingSourceObject: {fileID: 7710996749812572294, guid: 5e50eba45ef63694ab6dad66efcbb007, type: 3}
      insertIndex: -1
      addedObject: {fileID: 0}
    - targetCorrespondingSourceObject: {fileID: 3034409650195357501, guid: 5e50eba45ef63694ab6dad66efcbb007, type: 3}
      insertIndex: -1
      addedObject: {fileID: 0}
    - targetCorrespondingSourceObject: {fileID: 8026247860376756413, guid: 5e50eba45ef63694ab6dad66efcbb007, type: 3}
      insertIndex: -1
      addedObject: {fileID: 0}
    - targetCorrespondingSourceObject: {fileID: 4910602763602364440, guid: 5e50eba45ef63694ab6dad66efcbb007, type: 3}
      insertIndex: -1
      addedObject: {fileID: 0}
    - targetCorrespondingSourceObject: {fileID: 3489986165331888497, guid: 5e50eba45ef63694ab6dad66efcbb007, type: 3}
      insertIndex: -1
      addedObject: {fileID: 0}
    - targetCorrespondingSourceObject: {fileID: 6768312095733859453, guid: 5e50eba45ef63694ab6dad66efcbb007, type: 3}
      insertIndex: -1
      addedObject: {fileID: 0}
    - targetCorrespondingSourceObject: {fileID: 3431491190849942656, guid: 5e50eba45ef63694ab6dad66efcbb007, type: 3}
      insertIndex: -1
      addedObject: {fileID: 0}
    - targetCorrespondingSourceObject: {fileID: 7541109819460593821, guid: 5e50eba45ef63694ab6dad66efcbb007, type: 3}
      insertIndex: -1
      addedObject: {fileID: 0}
    - targetCorrespondingSourceObject: {fileID: 1437500468706059486, guid: 5e50eba45ef63694ab6dad66efcbb007, type: 3}
      insertIndex: -1
      addedObject: {fileID: 0}
    - targetCorrespondingSourceObject: {fileID: 144484891354690532, guid: 5e50eba45ef63694ab6dad66efcbb007, type: 3}
      insertIndex: -1
      addedObject: {fileID: 0}
    - targetCorrespondingSourceObject: {fileID: 8045038068886519946, guid: 5e50eba45ef63694ab6dad66efcbb007, type: 3}
      insertIndex: -1
      addedObject: {fileID: 0}
    - targetCorrespondingSourceObject: {fileID: 762112824966315897, guid: 5e50eba45ef63694ab6dad66efcbb007, type: 3}
      insertIndex: -1
      addedObject: {fileID: 0}
    - targetCorrespondingSourceObject: {fileID: 2416280936009483694, guid: 5e50eba45ef63694ab6dad66efcbb007, type: 3}
      insertIndex: -1
      addedObject: {fileID: 0}
    - targetCorrespondingSourceObject: {fileID: 6983293094726262590, guid: 5e50eba45ef63694ab6dad66efcbb007, type: 3}
      insertIndex: -1
      addedObject: {fileID: 0}
    - targetCorrespondingSourceObject: {fileID: 5271758968760382928, guid: 5e50eba45ef63694ab6dad66efcbb007, type: 3}
      insertIndex: -1
      addedObject: {fileID: 0}
    - targetCorrespondingSourceObject: {fileID: 911351060, guid: 5e50eba45ef63694ab6dad66efcbb007, type: 3}
      insertIndex: -1
      addedObject: {fileID: 0}
    - targetCorrespondingSourceObject: {fileID: 1590380490, guid: 5e50eba45ef63694ab6dad66efcbb007, type: 3}
      insertIndex: -1
      addedObject: {fileID: 0}
    - targetCorrespondingSourceObject: {fileID: 751583286, guid: 5e50eba45ef63694ab6dad66efcbb007, type: 3}
      insertIndex: -1
      addedObject: {fileID: 0}
    - targetCorrespondingSourceObject: {fileID: 741294705, guid: 5e50eba45ef63694ab6dad66efcbb007, type: 3}
      insertIndex: -1
      addedObject: {fileID: 0}
    - targetCorrespondingSourceObject: {fileID: 912838792, guid: 5e50eba45ef63694ab6dad66efcbb007, type: 3}
      insertIndex: -1
      addedObject: {fileID: 0}
    - targetCorrespondingSourceObject: {fileID: 2032522504, guid: 5e50eba45ef63694ab6dad66efcbb007, type: 3}
      insertIndex: -1
      addedObject: {fileID: 0}
  m_SourcePrefab: {fileID: 100100000, guid: 5e50eba45ef63694ab6dad66efcbb007, type: 3}
--- !u!1001 &7942002210539120495
PrefabInstance:
  m_ObjectHideFlags: 0
  serializedVersion: 2
  m_Modification:
    serializedVersion: 3
    m_TransformParent: {fileID: 0}
    m_Modifications:
    - target: {fileID: 7942002210973373747, guid: a5226a72c9553294abfe172a458b5805, type: 3}
      propertyPath: m_RootOrder
      value: 1
      objectReference: {fileID: 0}
    - target: {fileID: 7942002210973373747, guid: a5226a72c9553294abfe172a458b5805, type: 3}
      propertyPath: m_LocalPosition.x
      value: 0
      objectReference: {fileID: 0}
    - target: {fileID: 7942002210973373747, guid: a5226a72c9553294abfe172a458b5805, type: 3}
      propertyPath: m_LocalPosition.y
      value: -0.2
      objectReference: {fileID: 0}
    - target: {fileID: 7942002210973373747, guid: a5226a72c9553294abfe172a458b5805, type: 3}
      propertyPath: m_LocalPosition.z
      value: -4
      objectReference: {fileID: 0}
    - target: {fileID: 7942002210973373747, guid: a5226a72c9553294abfe172a458b5805, type: 3}
      propertyPath: m_LocalRotation.w
      value: 1
      objectReference: {fileID: 0}
    - target: {fileID: 7942002210973373747, guid: a5226a72c9553294abfe172a458b5805, type: 3}
      propertyPath: m_LocalRotation.x
      value: 0
      objectReference: {fileID: 0}
    - target: {fileID: 7942002210973373747, guid: a5226a72c9553294abfe172a458b5805, type: 3}
      propertyPath: m_LocalRotation.y
      value: 0
      objectReference: {fileID: 0}
    - target: {fileID: 7942002210973373747, guid: a5226a72c9553294abfe172a458b5805, type: 3}
      propertyPath: m_LocalRotation.z
      value: 0
      objectReference: {fileID: 0}
    - target: {fileID: 7942002210973373747, guid: a5226a72c9553294abfe172a458b5805, type: 3}
      propertyPath: m_LocalEulerAnglesHint.x
      value: 0
      objectReference: {fileID: 0}
    - target: {fileID: 7942002210973373747, guid: a5226a72c9553294abfe172a458b5805, type: 3}
      propertyPath: m_LocalEulerAnglesHint.y
      value: 0
      objectReference: {fileID: 0}
    - target: {fileID: 7942002210973373747, guid: a5226a72c9553294abfe172a458b5805, type: 3}
      propertyPath: m_LocalEulerAnglesHint.z
      value: 0
      objectReference: {fileID: 0}
    - target: {fileID: 7942002210973373748, guid: a5226a72c9553294abfe172a458b5805, type: 3}
      propertyPath: m_Name
      value: Auto Hand Player Container
      objectReference: {fileID: 0}
    m_RemovedComponents: []
    m_RemovedGameObjects: []
    m_AddedGameObjects: []
    m_AddedComponents: []
  m_SourcePrefab: {fileID: 100100000, guid: a5226a72c9553294abfe172a458b5805, type: 3}
