%YAML 1.1
%TAG !u! tag:unity3d.com,2011:
--- !u!1045 &1
EditorBuildSettings:
  m_ObjectHideFlags: 0
  serializedVersion: 2
  m_Scenes:
  - enabled: 1
    path: Assets/Scenes/menu.unity
    guid: e61201718f2cd2346b582c5cfd752441
  - enabled: 1
    path: Assets/Scenes/SampleScene.unity
    guid: 9fc0d4010bbf28b4594072e72b8655ab
  m_configObjects:
    Unity.XR.Oculus.Settings: {fileID: 11400000, guid: 8267b179818d71243aec0ec712d58b04, type: 2}
    com.unity.xr.management.loader_settings: {fileID: 11400000, guid: f611c29174d294a408cc164d60307a83, type: 2}
    com.unity.xr.openxr.settings4: {fileID: 11400000, guid: daac1272fa3ff7249a42b732da8c10a1, type: 2}
